B3 Indexes • rb3
…
Indexes Composition and Weights

The composition of B3 indexes are available through the function
rb3::index_weights_get. This function returns a data.frame
with the current compostion of the requested index, all symbols that
compound the index, their weights and theoretical position. Here the
IBOVESPA (IBOV) Index has its composition listed.

index_weights_get("IBOV")

#> # A tibble: 87 × 3
#>    symbol  weight   position
#>    <chr>    <dbl>      <dbl>
#>  1 ABEV3  0.0258  4394835131
#>  2 ALOS3  0.00442  476976044
#>  3 AMOB3  0.00009  533959816
#>  4 ASAI3  0.00378 1345832968
#>  5 AURE3  0.00141  323738747
#>  6 AZUL4  0.00064  326872005
#>  7 AZZA3  0.00205  136643320
#>  8 B3SA3  0.0282  5392540963
#>  9 BBAS3  0.0350  2842613858
#> 10 BBDC3  0.00794 1484426957
#> # ℹ 77 more rows

The IBr100 Index (IBXX)

index_weights_get("IBXX")

#> # A tibble: 101 × 3
#>    symbol  weight   position
#>    <chr>    <dbl>      <dbl>
#>  1 ABEV3  0.0244  4394835131
#>  2 ALOS3  0.00419  476976044
#>  3 ALPA4  0.00052  164391149
#>  4 AMBP3  0.00219   37603389
#>  5 AMOB3  0.00009  533959816
#>  6 ASAI3  0.00358 1345832968
#>  7 AURE3  0.00134  323738747
#>  8 AZUL4  0.0006   326872005
#>  9 AZZA3  0.00194  136643320
#> 10 B3SA3  0.0267  5392540963
#> # ℹ 91 more rows

The Small Caps Index (SMLL)

index_weights_get("SMLL")

#> # A tibble: 120 × 3
#>    symbol  weight   position
#>    <chr>    <dbl>      <dbl>
#>  1 ABCB4  0.0055    72905159
#>  2 AGRO3  0.0056    63480488
#>  3 ALOS3  0.0338   476976044
#>  4 ALPA4  0.00418  164391149
#>  5 ALUP11 0.0158   151478409
#>  6 AMOB3  0.0007   533959816
#>  7 ANIM3  0.00156  257302285
#>  8 ARML3  0.00357  171598756
#>  9 ASAI3  0.0290  1345832968
#> 10 AURE3  0.0108   323738747
#> # ℹ 110 more rows
…
Index by Segment

rb3::index_by_segment_get returns a data.frame with all
stocks that are in the index, their economic segment, weights, position
and segment weight in the index.

index_by_segment_get("IBOV")

#> # A tibble: 87 × 6
#>    symbol segment                      weight segment_weight position refdate   
#>    <chr>  <chr>                         <dbl>          <dbl>    <dbl> <date>    
#>  1 WEGE3  Bens Indls / Máqs e Equips  0.0274          0.0274   1.24e9 2025-04-14
#>  2 EMBR3  Bens Indls / Mat Transporte 0.0218          0.0237   7.35e8 2025-04-14
#>  3 POMO4  Bens Indls / Mat Transporte 0.00196         0.0237   6.66e8 2025-04-14
#>  4 AZUL4  Bens Indls/Transporte       0.00048         0.0223   3.27e8 2025-04-14
#>  5 CCRO3  Bens Indls/Transporte       0.00567         0.0223   9.92e8 2025-04-14
#>  6 RAIL3  Bens Indls/Transporte       0.0106          0.0223   1.22e9 2025-04-14
#>  7 STBP3  Bens Indls/Transporte       0.00557         0.0223   8.56e8 2025-04-14
#>  8 BRFS3  Cons N  Básico / Alimentos… 0.00817         0.0364   8.15e8 2025-04-14
#>  9 JBSS3  Cons N  Básico / Alimentos… 0.0231          0.0364   1.15e9 2025-04-14
#> 10 MRFG3  Cons N  Básico / Alimentos… 0.00297         0.0364   3.02e8 2025-04-14
#> # ℹ 77 more rows
…
