Getting Started • rb3
…
yc_ipca_get(): Retrieves the Brazilian real interest
rate curve (DIC).

yc_usd_get(): Retrieves the FX-linked yield curve
(DOC).

and many others. For example, to access the data downloaded using the
b3-reference-rates template, you can use the
yc_brl_get() function:

# Get the Brazilian nominal yield curve (PRE)
yc_brl_get() |>
  filter(refdate == "2024-01-31") |>
  collect()
#> # A tibble: 257 × 7
#>    curve_name refdate    forward_date cur_days biz_days r_252  r_360
#>    <chr>      <date>     <date>          <int>    <int> <dbl>  <dbl>
#>  1 PRE        2024-01-31 2024-02-01          1        1 0.116 0
#>  2 PRE        2024-01-31 2024-02-07          7        5 0.112 0.115
#>  3 PRE        2024-01-31 2024-02-14         14        8 0.112 0.0906
#>  4 PRE        2024-01-31 2024-02-15         15        9 0.112 0.0953
#>  5 PRE        2024-01-31 2024-02-16         16       10 0.112 0.0994
#>  6 PRE        2024-01-31 2024-02-21         21       13 0.112 0.0983
#>  7 PRE        2024-01-31 2024-02-28         28       18 0.112 0.102
#>  8 PRE        2024-01-31 2024-02-29         29       19 0.112 0.104
#>  9 PRE        2024-01-31 2024-03-01         30       20 0.112 0.106
#> 10 PRE        2024-01-31 2024-03-04         33       21 0.112 0.101
#> # ℹ 247 more rows
…
